{
	"Men's Fragrance": ["men_fashion", "men_other"],
	"Men's Skin": ["men_fashion", "men_other"],
	"Ladies Fragrance": ["women_fashion", "women_beauty_skincare"],
	"Skincare": ["women_fashion", "women_beauty_skincare"],
	"Make Up": ["women_fashion", "women_beauty_skincare"],
	"Hair care": ["women_fashion", "women_beauty_skincare"]
}